4_osic_tools/stopwatch/stopwatch.sim/sim_1/behav/xsim/dump.vcd
$date
   Mon Apr 28 11:48:40 2025
$end

$version
  2024.2.0
  $dumpfile ("dump.vcd") 
$end

$timescale
  1ps
$end

$scope module stopwatch_tb $end
$var reg 1 ! stop $end
$var reg 1 " start $end
$var reg 1 # clear $end
$var reg 1 $ incr $end
$var reg 1 % clk $end
$var reg 1 & rstn $end
$var reg 4 ' AN [3:0] $end
$scope module dut $end
$var wire 1 ( stop $end
$var wire 1 ) start $end
$var wire 1 * clear $end
$var wire 1 + incr $end
$var wire 1 , clk $end
$var wire 1 - rstn $end
$var reg 4 ' AN [3:0] $end
$var reg 17 . ticks [16:0] $end
$var reg 1 / millis $end
$var reg 1 0 ms_tick $end
$var reg 14 1 tot_count [13:0] $end
$var reg 2 2 next_state $end
$var reg 2 3 state $end
$scope module seg_dec0 $end
$var wire 4 4 num [3:0] $end
$var reg 7 5 seg [6:0] $end
$upscope $end
$scope module seg_dec1 $end
$var wire 4 6 num [3:0] $end
$var reg 7 7 seg [6:0] $end
$upscope $end
$scope module seg_dec2 $end
$var wire 4 8 num [3:0] $end
$var reg 7 9 seg [6:0] $end
$upscope $end
$scope module seg_dec3 $end
$var wire 4 : num [3:0] $end
$var reg 7 ; seg [6:0] $end
$upscope $end
$upscope $end
$upscope $end
$enddefinitions $end

#0
$dumpvars
0!
0"
0#
0$
1%
0&
b1110 '
0(
0)
0*
0+
1,
0-
b0 .
0/
00
b0 1
b1 2
b1 3
b0 4
b111111 5
b0 6
b111111 7
b0 8
b111111 9
b0 :
b111111 ;
$end

#5000
0%
0,

#10000
1%
1,

#15000
0%
0,

#20000
1%
1,

#25000
0%
0,

#30000
1%
1&
1,
1-
b1 .

#35000
0%
0,

#40000
1#
1%
1*
1,
b10 .

#45000
0%
0,

#50000
1%
1,
b11 .

#55000
0%
0,

#60000
1"
1%
1)
1,
b100 .
b1 2
b10 3

#65000
0%
0,

#70000
1$
1%
1+
1,
b101 .
b1 1
b10 2
b1 3
b1 4
b110 5

#75000
0%
0,

#80000
0$
1%
0+
1,
b110 .
b0 1
b1 2
b10 3
b0 4
b111111 5

#85000
0%
0,

#90000
0"
1%
0)
1,
b111 .
b1 3

#95000
0%
0,

#100000
1!
1%
1(
1,
b1000 .

#105000
0%
0,

#110000
1%
1,
b1001 .

#115000
0%
0,

#120000
1%
1,
b1010 .

#125000
0%
0,

#130000
1%
1,
b1011 .

#135000
0%
0,

#140000
1%
1,
b1100 .

#145000
0%
0,

#150000
1%
1,
b1101 .

#155000
0%
0,

#160000
1%
1,
b1110 .

#165000
0%
0,

#170000
1%
1,
b1111 .

#175000
0%
0,

#180000
1%
1,
b10000 .

#185000
0%
0,

#190000
1%
1,
b10001 .

