2_digital_safe/quartus project/simulation/modelsim/dump.vcd
$date
	Tue Mar 18 18:14:47 2025
$end
$version
	ModelSim Version 2020.1
$end
$timescale
	1ps
$end

$scope module top_tb $end
$var parameter 32 ! CLK_PERIOD $end
$var parameter 32 " N $end
$var reg 1 # clk $end
$var reg 1 $ rstn $end
$var reg 4 % pdata [3:0] $end
$var reg 1 & pvalid $end
$var reg 1 ' pready $end
$var reg 1 ( sready $end
$var reg 1 ) sdata $end
$var reg 1 * svalid $end
$var reg 1 + unlock_valid $end
$var reg 1 , unlock $end
$var reg 1 - incorrect $end

$scope module dut $end
$var parameter 32 . N $end
$var wire 1 / pvalid $end
$var wire 1 0 sready $end
$var wire 1 1 clk $end
$var wire 1 2 rstn $end
$var wire 1 3 pdata [3] $end
$var wire 1 4 pdata [2] $end
$var wire 1 5 pdata [1] $end
$var wire 1 6 pdata [0] $end
$var reg 1 7 pready $end
$var reg 1 8 svalid $end
$var reg 1 9 sdata $end
$var reg 1 : unlock_valid $end
$var reg 1 ; unlock $end
$var reg 1 < incorrect $end

$scope module myp2s $end
$var parameter 32 = N $end
$var parameter 32 > NBITS $end
$var wire 1 / pvalid $end
$var wire 1 0 sready $end
$var wire 1 1 clk $end
$var wire 1 2 rstn $end
$var wire 1 3 pdata [3] $end
$var wire 1 4 pdata [2] $end
$var wire 1 5 pdata [1] $end
$var wire 1 6 pdata [0] $end
$var reg 1 ? pready $end
$var reg 1 @ svalid $end
$var reg 1 A sdata $end
$var reg 2 B count [1:0] $end
$var reg 4 C register [3:0] $end
$var reg 1 D nextState $end
$var reg 1 E state $end
$upscope $end

$scope module myfsmml $end
$var parameter 32 F N $end
$var wire 1 1 clk $end
$var wire 1 2 rstn $end
$var wire 1 G ser_valid $end
$var wire 1 H ser_data $end
$var reg 1 I unlock_valid $end
$var reg 1 J unlock $end
$var reg 1 K incorrect $end
$var reg 2 L next_state [1:0] $end
$var reg 2 M state [1:0] $end
$var reg 2 N bit_count [1:0] $end
$upscope $end
$upscope $end
$upscope $end

$scope begin std $end
$upscope $end
$enddefinitions $end
#0
$dumpvars
1#
0$
bx %
0&
1'
0(
x)
0*
0+
0,
x-
17
08
x9
0:
0;
x<
1?
0@
xA
b0 B
bx C
0D
0E
0I
0J
xK
b0 L
b0 M
b0 N
b1010 !
b100 "
b100 .
b100 =
b10 >
b100 F
11
02
x6
x5
x4
x3
0/
00
0G
xH
$end
#5000
0#
01
#10000
1#
11
#15000
0#
01
#20000
1#
11
#21000
1$
12
#25000
0#
01
#30000
1#
11
0K
0<
0-
#35000
0#
01
#40000
1#
11
#41000
b1011 %
1&
16
15
04
13
1/
1D
#45000
0#
01
#50000
1#
11
1E
b1011 C
1A
0?
1@
18
07
19
1)
0'
1*
1G
1H
b1 L
#51000
0&
1(
0/
10
#55000
0#
01
#60000
1#
11
b110 C
b1 B
b1 M
b1 N
0A
09
0)
0H
b10 L
#65000
0#
01
#70000
1#
11
b1100 C
b10 B
b10 M
b10 N
1A
19
1)
1H
b11 L
#75000
0#
01
#80000
1#
11
b1000 C
b11 B
b11 M
b11 N
b0 L
0D
#85000
0#
01
#90000
1#
11
1I
1J
1;
1:
1+
1,
0E
b0 C
b0 B
b0 M
b0 N
0A
1?
0@
08
17
09
0)
1'
0*
0G
0H
#95000
0#
01
#100000
1#
11
0J
0I
0:
0;
0,
0+
b1011 C
1A
19
1)
1H
#105000
0#
01
#110000
1#
11
#115000
0#
01
#120000
1#
11
#125000
0#
01
#130000
1#
11
#135000
0#
01
#140000
1#
11
#145000
0#
01
#150000
1#
11
#155000
0#
01
#160000
1#
11
#161000
b1100 %
1&
06
05
14
1/
1D
#165000
0#
01
#170000
1#
11
1E
b1100 C
0?
1@
18
07
0'
1*
1G
b1 L
#171000
0&
0/
#175000
0#
01
#180000
1#
11
b1000 C
b1 B
b1 M
b1 N
b0 L
#185000
0#
01
#190000
1#
11
1I
1:
1+
b0 C
b10 B
b0 M
b0 N
b10 N
0A
09
0)
0H
#195000
0#
01
#200000
1#
11
b11 B
b0 N
b11 N
0D
#205000
0#
01
#210000
1#
11
1K
1<
1-
0E
b0 B
b0 N
1?
0@
08
17
1'
0*
0G
#215000
0#
01
#220000
1#
11
0I
0K
0<
0:
0+
0-
b1100 C
1A
19
1)
1H
#225000
0#
01
#230000
1#
11
#235000
0#
01
#240000
1#
11
#245000
0#
01
#250000
1#
11
#255000
0#
01
#260000
1#
11
#265000
0#
01
#270000
1#
11
#275000
0#
01
#280000
1#
11
#281000
b1011 %
1&
16
15
04
1/
1D
#285000
0#
01
#290000
1#
11
1E
b1011 C
0?
1@
18
07
0'
1*
1G
b1 L
#291000
0&
0/
#295000
0#
01
#300000
1#
11
b110 C
b1 B
b1 M
b1 N
0A
09
0)
0H
b10 L
#305000
0#
01
#310000
1#
11
b1100 C
b10 B
b10 M
b10 N
1A
19
1)
1H
b11 L
#315000
0#
01
#320000
1#
11
b1000 C
b11 B
b11 M
b11 N
b0 L
0D
#325000
0#
01
#330000
1#
11
1I
1J
1;
1:
1+
1,
0E
b0 C
b0 B
b0 M
b0 N
0A
1?
0@
08
17
09
0)
1'
0*
0G
0H
#335000
0#
01
#340000
1#
11
0J
0I
0:
0;
0,
0+
b1011 C
1A
19
1)
1H
#345000
0#
01
#350000
1#
11
#355000
0#
01
#360000
1#
11
#365000
0#
01
#370000
1#
11
#375000
0#
01
#380000
1#
11
#385000
0#
01
#390000
1#
11
#395000
0#
01
#400000
1#
11
#401000
b11 %
1&
03
1/
1D
#405000
0#
01
#410000
1#
11
1E
b11 C
0A
0?
1@
18
07
09
0)
0'
1*
1G
0H
#411000
0&
0/
#415000
0#
01
#420000
1#
11
1I
1:
1+
b110 C
b1 B
b1 N
#425000
0#
01
#430000
1#
11
b1100 C
b10 B
b0 N
b10 N
1A
19
1)
1H
b1 L
#435000
0#
01
#440000
1#
11
0I
0:
0+
b1000 C
b11 B
b1 M
b11 N
b0 L
0D
#445000
0#
01
#450000
1#
11
1I
1K
1<
1:
1+
1-
0E
b0 C
b0 B
b0 M
b0 N
0A
1?
0@
08
17
09
0)
1'
0*
0G
0H
#455000
0#
01
#460000
1#
11
0I
0K
0<
0:
0+
0-
b11 C
#465000
0#
01
#470000
1#
11
#475000
0#
01
#480000
1#
11
#485000
0#
01
#490000
1#
11
#495000
0#
01
#500000
1#
11
#505000
0#
01
#510000
1#
11
#515000
0#
01
#520000
1#
11
#521000
b1000 %
1&
06
05
13
1/
1D
#525000
0#
01
#530000
1#
11
1E
b1000 C
1A
0?
1@
18
07
19
1)
0'
1*
1G
1H
b1 L
#531000
0&
0/
#535000
0#
01
#540000
1#
11
b0 C
b1 B
b1 M
b1 N
0A
09
0)
0H
b10 L
#545000
0#
01
#550000
1#
11
b10 B
b10 M
b10 N
b0 L
#555000
0#
01
#560000
1#
11
1I
1:
1+
b11 B
b0 M
b0 N
b11 N
0D
#565000
0#
01
#570000
1#
11
1K
1<
1-
0E
b0 B
b0 N
1?
0@
08
17
1'
0*
0G
#575000
0#
01
#580000
1#
11
0I
0K
0<
0:
0+
0-
b1000 C
1A
19
1)
1H
